{
  "name": "xxx",
  "title": "xxx",
  "description": "xxx",
  "author": "p4535992",
  "version": "0.0.1",
  "minimumCoreVersion": "0.6.5",
  "compatibleCoreVersion": "0.6.5",
  "url": "https://gitlab.com/p4535992/foundryvtt-modules-dev",
  "manifest": "https://gitlab.com/p4535992/foundryvtt-modules-dev/xxx/master/module.json",
  "download": ""
}
